G75*
%MOIN*%
%OFA0B0*%
%FSLAX25Y25*%
%IPPOS*%
%LPD*%
%AMOC8*
5,1,8,0,0,1.08239X$1,22.5*
%
%ADD10R,0.03937X0.04331*%
%ADD11R,0.04331X0.03937*%
%ADD12R,0.01181X0.05118*%
%ADD13R,0.07087X0.08661*%
%ADD14C,0.03962*%
%ADD15R,0.03569X0.03569*%
%ADD16C,0.01600*%
%ADD17C,0.01200*%
%ADD18C,0.02000*%
D10*
X0091650Y0029100D03*
X0098343Y0029100D03*
X0135950Y0038600D03*
X0142643Y0038600D03*
X0173643Y0043600D03*
X0180336Y0043600D03*
X0239950Y0043600D03*
X0246643Y0043600D03*
X0277950Y0037600D03*
X0284643Y0037600D03*
X0341543Y0027500D03*
X0348236Y0027500D03*
X0379397Y0019100D03*
X0386090Y0019100D03*
D11*
X0033943Y0018693D03*
X0033943Y0012000D03*
D12*
X0199316Y0028895D03*
X0201285Y0028895D03*
X0203253Y0028895D03*
X0205222Y0028895D03*
X0207191Y0028895D03*
X0209159Y0028895D03*
X0211128Y0028895D03*
X0213096Y0028895D03*
X0215065Y0028895D03*
X0217033Y0028895D03*
X0219002Y0028895D03*
X0220970Y0028895D03*
D13*
X0228450Y0016100D03*
X0191836Y0016100D03*
D14*
X0027943Y0012100D03*
X0083943Y0027300D03*
X0061643Y0028300D03*
X0114193Y0037150D03*
X0123243Y0036500D03*
X0164943Y0043600D03*
X0187343Y0042900D03*
X0212943Y0046500D03*
X0232043Y0043600D03*
X0254843Y0043400D03*
X0268543Y0036900D03*
X0307843Y0036300D03*
X0358643Y0027800D03*
X0334643Y0026400D03*
X0392643Y0019300D03*
X0371343Y0016900D03*
X0389043Y0012500D03*
X0218143Y0022100D03*
X0199343Y0022800D03*
D15*
X0203343Y0041100D03*
X0207743Y0041100D03*
X0212243Y0041100D03*
X0216743Y0041500D03*
D16*
X0232043Y0043600D02*
X0239950Y0043600D01*
X0243143Y0047600D02*
X0246893Y0043850D01*
X0246643Y0043600D01*
X0246893Y0043850D02*
X0247343Y0043400D01*
X0254843Y0043400D01*
X0256643Y0043400D01*
X0258443Y0041600D01*
X0281643Y0041600D01*
X0284643Y0038600D01*
X0284643Y0037600D01*
X0285143Y0038100D01*
X0306043Y0038100D01*
X0307843Y0036300D01*
X0311443Y0032700D01*
X0346943Y0032700D01*
X0348236Y0031407D01*
X0348236Y0027500D01*
X0341543Y0027500D02*
X0335743Y0027500D01*
X0334643Y0026400D01*
X0353743Y0032700D02*
X0358643Y0027800D01*
X0366343Y0020100D01*
X0373143Y0020100D01*
X0371343Y0018300D01*
X0371343Y0016900D01*
X0378397Y0020100D02*
X0379397Y0019100D01*
X0378397Y0020100D02*
X0373143Y0020100D01*
X0353743Y0032700D02*
X0346943Y0032700D01*
X0277950Y0037600D02*
X0269243Y0037600D01*
X0268543Y0036900D01*
X0214043Y0047600D02*
X0212943Y0046500D01*
X0211843Y0047600D01*
X0177643Y0047600D01*
X0173643Y0043600D01*
X0164943Y0043600D01*
X0163636Y0042293D01*
X0138643Y0042293D01*
X0135950Y0039600D01*
X0135950Y0038600D01*
X0119336Y0042293D02*
X0114193Y0037150D01*
X0114143Y0037100D02*
X0110143Y0033100D01*
X0099443Y0033100D01*
X0098343Y0032000D01*
X0098343Y0029100D01*
X0091650Y0029100D02*
X0085743Y0029100D01*
X0083943Y0027300D01*
X0066443Y0033100D02*
X0061643Y0028300D01*
X0051943Y0018600D01*
X0034036Y0018600D01*
X0033943Y0018693D01*
X0033943Y0012000D02*
X0028043Y0012000D01*
X0027943Y0012100D01*
X0066443Y0033100D02*
X0089037Y0033100D01*
X0089102Y0033165D01*
X0094199Y0033165D01*
X0094264Y0033100D01*
X0099443Y0033100D01*
X0119336Y0042293D02*
X0138643Y0042293D01*
X0180336Y0043600D02*
X0187243Y0043600D01*
X0187343Y0043500D01*
X0188043Y0042800D01*
X0214043Y0047600D02*
X0225643Y0047600D01*
X0243143Y0047600D01*
X0213143Y0025687D02*
X0213143Y0024600D01*
X0215643Y0022100D01*
X0218143Y0022100D01*
X0207191Y0024547D02*
X0205443Y0022800D01*
X0199343Y0022800D01*
D17*
X0207191Y0024547D02*
X0207191Y0028895D01*
X0209159Y0028895D02*
X0209159Y0033584D01*
X0207743Y0035000D01*
X0207743Y0041100D01*
X0212243Y0041100D02*
X0212243Y0037200D01*
X0211128Y0036084D01*
X0211128Y0028895D01*
X0213096Y0028895D02*
X0213096Y0025734D01*
X0213143Y0025687D01*
X0213096Y0028895D02*
X0213096Y0035053D01*
X0216743Y0038700D01*
X0216743Y0041500D01*
X0222906Y0041500D02*
X0229943Y0041500D01*
X0232043Y0043600D01*
X0222906Y0041500D02*
X0215065Y0033658D01*
X0215065Y0028895D01*
X0217033Y0028895D02*
X0217033Y0032481D01*
X0223552Y0039000D01*
X0259015Y0039000D01*
X0261115Y0036900D01*
X0268543Y0036900D01*
X0261589Y0033400D02*
X0258189Y0036800D01*
X0223998Y0036800D01*
X0219002Y0031804D01*
X0219002Y0028895D01*
X0220970Y0028895D02*
X0220970Y0031127D01*
X0224343Y0034500D01*
X0257243Y0034500D01*
X0260543Y0031200D01*
X0304543Y0031200D01*
X0312643Y0023100D01*
X0358143Y0023100D01*
X0370143Y0011100D01*
X0387643Y0011100D01*
X0389043Y0012500D01*
X0334643Y0026400D02*
X0333643Y0025400D01*
X0313489Y0025400D01*
X0305489Y0033400D01*
X0261589Y0033400D01*
X0225643Y0047600D02*
X0216743Y0038700D01*
X0205222Y0033621D02*
X0198143Y0040700D01*
X0190143Y0040700D01*
X0188043Y0042800D01*
X0187343Y0042900D02*
X0187343Y0043500D01*
X0197443Y0038600D02*
X0142643Y0038600D01*
X0143954Y0039911D01*
X0142643Y0038600D02*
X0142643Y0036600D01*
X0141143Y0035100D01*
X0124643Y0035100D01*
X0123243Y0036500D01*
X0114143Y0033100D02*
X0106343Y0025300D01*
X0092543Y0025300D01*
X0091650Y0026193D01*
X0091650Y0029100D01*
X0107554Y0023211D02*
X0115543Y0031200D01*
X0158243Y0031200D01*
X0161043Y0034000D01*
X0196643Y0034000D01*
X0199316Y0031327D01*
X0199316Y0028895D01*
X0201285Y0028895D02*
X0201285Y0031904D01*
X0196889Y0036300D01*
X0159843Y0036300D01*
X0156643Y0033100D01*
X0114143Y0033100D01*
X0107554Y0023211D02*
X0061754Y0023211D01*
X0050543Y0012000D01*
X0033943Y0012000D01*
X0197443Y0038600D02*
X0203253Y0032790D01*
X0203253Y0028895D01*
X0205222Y0028895D02*
X0205222Y0033621D01*
D18*
X0114193Y0037100D02*
X0114193Y0037150D01*
X0114193Y0037100D02*
X0114143Y0037100D01*
X0386090Y0019100D02*
X0392443Y0019100D01*
X0392643Y0019300D01*
M02*
